module gitlab.com/alexdouze12/image-store

go 1.13

require (
	cirello.io/pglock v1.8.0
	github.com/99designs/gqlgen v0.13.0
	github.com/99designs/gqlgen-contrib v0.1.1-0.20200601100547-7a955d321bbd
	github.com/DATA-DOG/go-sqlmock v1.5.0
	github.com/HdrHistogram/hdrhistogram-go v1.0.1 // indirect
	github.com/InVisionApp/go-health/v2 v2.1.2
	github.com/aws/aws-sdk-go v1.27.0
	github.com/coreos/go-oidc v2.2.1+incompatible
	github.com/danielkov/gin-helmet v0.0.0-20171108135313-1387e224435e
	github.com/fsnotify/fsnotify v1.4.9
	github.com/gin-contrib/cors v1.3.1
	github.com/gin-contrib/gzip v0.0.3
	github.com/gin-contrib/static v0.0.0-20200916080430-d45d9a37d28e
	github.com/gin-gonic/gin v1.6.3
	github.com/go-playground/validator/v10 v10.4.1
	github.com/gofrs/uuid v4.0.0+incompatible
	github.com/golang/mock v1.4.4
	github.com/opentracing-contrib/go-gin v0.0.0-20201220185307-1dd2273433a4
	github.com/opentracing/opentracing-go v1.2.0
	github.com/pkg/errors v0.9.1
	github.com/pquerna/cachecontrol v0.0.0-20201205024021-ac21108117ac // indirect
	github.com/prometheus/client_golang v1.9.0
	github.com/sirupsen/logrus v1.7.0
	github.com/spf13/viper v1.7.1
	github.com/stretchr/testify v1.7.0
	github.com/thoas/go-funk v0.7.0
	github.com/uber/jaeger-client-go v2.25.0+incompatible
	github.com/uber/jaeger-lib v2.4.0+incompatible
	github.com/vektah/gqlparser/v2 v2.1.0
	github.com/xhit/go-simple-mail/v2 v2.7.0
	golang.org/x/oauth2 v0.0.0-20210126194326-f9ce19ea3013
	golang.org/x/sync v0.0.0-20201207232520-09787c993a3a
	gopkg.in/square/go-jose.v2 v2.5.1 // indirect
	gorm.io/driver/postgres v1.0.7
	gorm.io/gorm v1.20.12
	gorm.io/plugin/prometheus v0.0.0-20210112035011-ae3013937adc
)
